<define-tag pagetitle>DLA-2896-1 ipython</define-tag>
<define-tag report_date>2022-01-24</define-tag>
<define-tag secrefs>CVE-2022-21699</define-tag>
<define-tag packages>ipython</define-tag>
<define-tag isvulnerable>yes</define-tag>
<define-tag fixed>yes</define-tag>
<define-tag fixed-section>no</define-tag>

#use wml::debian::security
