
		       Tally Sheet for the votes cast. 
 
   The format is:
       "V: vote 	Login	Name"
 The vote block represents the ranking given to each of the 
 candidates by the voter. 
 -=-=-=-=-=-=-=-=-=-=-=-=-=-=-=-=-=-=-=-=-=-=-=-=-=-=-=-=-=-=-=-=-=-=
 -=-=-=-=-=-=-=-=-=-=-=-=-=-=-=-=-=-=-=-=-=-=-=-=-=-=-=-=-=-=-=-=-=-=

     Option 1--------->: Call for the FSF board removal, as in rms-open-letter.github.io
   /  Option 2-------->: Call for Stallman's resignation from all FSF bodies
   |/  Option 3------->: Discourage collaboration with the FSF while Stallman is in a leading position
   ||/  Option 4------>: Call on the FSF to further its governance processes
   |||/  Option 5----->: Support Stallman's reinstatement, as in rms-support-letter.github.io
   ||||/  Option 6---->: Denounce the witch-hunt against RMS and the FSF
   |||||/  Option 7--->: Debian will not issue a public statement on this issue
   ||||||/  Option 8-->: Further Discussion
   |||||||/
V: 12347856	          93sam	Steve McIntyre
V: 67853124	            abe	Axel Beckert
V: 75418236	       abhijith	Abhijith PA
V: 123----4	       achernya	Alexander Chernyakhovsky
V: ------12	      adrianorg	Adriano Gomes
V: 23117854	           adsb	Adam Barratt
V: 22222212	            agi	Alberto Gonzalez Iniesta
V: ----4213	       agmartin	Agustín Martín Domingo
V: -12---34	            agx	Guido Guenther
V: 15648823	             ah	Andreas Henriksson
V: -211---3	          alexm	Alex Muntada
V: 52138846	       amacater	Andrew Martin Adrian Cater
V: 123-----	          amaya	Amaya Rodrigo Sastre
V: 62417835	       ametzler	Andreas Metzler
V: 11346657	            ana	Ana Guerrero López
V: 1235--64	        anarcat	Antoine Beaupré
V: -432--15	           andi	Andreas Mundt
V: 3142---5	       andrewsh	Andrej Shadura
V: 1346--52	       angdraug	Dmitry Borodaenko
V: ------1-	          angel	Angel Abad
V: 43127865	         anibal	Anibal Monsalve Salazar
V: 85457736	         ansgar	- Ansgar
V: ------12	            apo	Markus Koschany
V: 55245513	        apoikos	Apollon Oikonomopoulos
V: 12347756	            ari	Ari Pollak
V: ------1-	           aron	Aron Xu
V: 1234---5	            asb	Andrew Starr-Bochicchio
V: 4221--35	        aurel32	Aurelien Jarno
V: ------12	          aviau	Alexandre Viau
V: 12348765	            awm	Andrew McMillan
V: ------21	      awoodland	Alan Woodland
V: -----213	             az	Alexander Zangerl
V: --1---2-	     babelouest	Nicolas Mora
V: 2123----	    balasankarc	Balasankar Chelamattathu
V: 67845312	       ballombe	Bill Allombert
V: 87654312	            bam	Brian May
V: 87653214	            bap	Barak Pearlmutter
V: ------12	          bartm	Bart Martens
V: -----312	            bas	Bas Zoetekouw
V: 12458763	         bbaren	Benjamin Barenblat
V: ------12	        bblough	William Blough
V: 34257716	          bdale	Bdale Garbee
V: 63626415	         bengen	Hilko Bengen
V: ------12	         bernat	Vincent Bernat
V: 44444213	           beuc	Sylvain Beucler
V: ---2--13	          biebl	Michael Biebl
V: 123-----	         birger	Birger Schacht
V: ------21	          blade	Eduard Bloch
V: 12347765	          bluca	Luca Boccassi
V: 1342---5	          bootc	Chris Boot
V: 41237856	        bremner	David Bremner
V: 12437856	        broonie	Mark Brown
V: ----2314	           bunk	Adrian Bunk
V: 88872318	          byang	Boyuan Yang
V: 88888812	           bzed	Bernd Zeimetz
V: 88888812	       calculus	Jerome Benoit
V: ------12	       capriott	Andrea Capriotti
V: ------12	         carnil	Salvatore Bonaccorso
V: ---52134	            cas	Craig Sanders
V: -541--32	       cascardo	Thadeu Cascardo
V: 87523614	         cbiedl	Christoph Biedl
V: ------12	      chronitis	Gordon Ball
V: 3124--56	       cjwatson	Colin Watson
V: 4312--56	          cklin	Chuan-kai Lin
V: 55558756	          clint	Clint Adams
V: 1234--56	            cmb	Chris Boyle
V: 24318765	       codehelp	Neil Williams
V: 12348765	         colint	Colin Tuckley
V: 62137745	        coucouf	Aurélien Couderc
V: 12346785	         crusoe	Michael Crusoe
V: 31248756	         csmall	Craig Small
V: 1223----	        ctaylor	Christopher Taylor
V: ------12	            cts	Christian Steigies
V: ---53214	          curan	Kai Wasserbäch
V: 21437856	          cwryu	Changwoo Ryu
V: -1-2---3	         czchen	ChangZhuo Chen
V: ------1-	            dai	Daisuke Higuchi
V: 12278856	          dannf	Dann Frazier
V: 11235554	      directhex	Jo Shields
V: 1234--65	            dkg	Daniel Gillmor
V: ------1-	      dktrkranz	Luca Falavigna
V: -----312	          dlehn	David Lehn
V: ------12	       dleidert	Daniel Leidert
V: ---1--23	        dmartin	Dale Martin
V: 1132--54	            dmn	Damyan Ivanov
V: ------1-	            dod	Dominique Dumont
V: 88888812	        dogsleg	Lev Lamberov
V: 4241--35	            dom	Dominic Hargreaves
V: 21236654	            don	Don Armstrong
V: 44434412	         donald	Donald Norwood
V: 2221--34	        donkult	David Kalnischkies
V: 1254--63	       dsilvers	Daniel Silverstone
V: ------12	         ebourg	Emmanuel Bourg
V: ------12	            edd	Dirk Eddelbuettel
V: 1234--65	        edmonds	Robert Edmonds
V: 1234--65	         eevans	Eric Evans
V: 12367754	       ehashman	Elana Hashman
V: 75347621	         elbrus	Paul Gevers
V: ------12	            ema	Emanuele Rocca
V: 11246653	         enrico	Enrico Zini
V: ------12	       eppesuig	Giuseppe Sacco
V: 123-----	       eriberto	Joao Eriberto Mota Filho
V: 54326718	           eric	Eric Dorland
V: 87651324	          eriks	Erik Schanze
V: 12348875	          eriol	Daniele Tricoli
V: 12437865	           etbe	Russell Coker
V: 1-------	         fabian	Fabian Greffrath
V: 55126634	            faw	Felipe van de Wiel
V: 21348865	       federico	Federico Ceratto
V: 12437865	         fgeyer	Felix Geyer
V: 22224413	        filippo	Filippo Giunchedi
V: 1234--65	        florian	Florian Ernst
V: 3124--56	        fpeters	Frederic Peters
V: 55545312	        frankie	Francesco Lovergine
V: 77777718	          fuddl	Bruno Kleinert
V: 51237764	             fw	Florian Weimer
V: 12223344	 gareuselesinge	Enrico Tassi
V: 53217746	        gaudenz	Gaudenz Steinlin
V: 1242---5	          georg	Georg Faerber
V: 88888818	       georgesk	Georges Khaznadar
V: 88888821	           gewo	Gert Wollny
V: ----3214	         ginggs	Graham Inggs
V: 12336645	            gio	Giovanni Mascellani
V: ---2--13	        giovani	Giovani Ferreira
V: 88888818	          gladk	Anton Gladky
V: 22222213	         glondu	Stéphane Glondu
V: ---43215	         gniibe	NIIBE Yutaka
V: 213---4-	             gq	Alexander Gerasiov
V: 43217865	         gregoa	Gregor Herrmann
V: 4231--56	        guilhem	Guilhem Moulin
V: 12347765	        guillem	Guillem Jover
V: 88855512	       gunnarhj	Gunnar Hjalmarsson
V: ----3124	         gusnan	Andreas Rönnquist
V: 77654312	           guus	Guus Sliepen
V: 31227645	          gwolf	Gunnar Wolf
V: 12458763	       hartmans	Sam Hartman
V: 41238856	          hefee	Sandro Knauß
V: 76528413	        helmutg	Helmut Grohne
V: 51328746	        hertzog	Raphaël Hertzog
V: 41237856	     hlieberman	Harlan Lieberman-Berg
V: 33333312	        hoexter	Sven Hoexter
V: 312---45	         holger	Holger Levsen
V: --42--13	       holmgren	Magnus Holmgren
V: ----21-3	         hsteoh	Hwei Teoh
V: 65326614	            hug	Philipp Hug
V: 31268845	     hvhaugwitz	Hannes von Haugwitz
V: ------1-	           ianw	Ian Wienand
V: 87528514	            ijc	Ian Campbell
V: --1---23	       iliastsi	Ilias Tsitsimpis
V: 87634512	       indiebio	Bernelle Verster
V: 78652134	      infinity0	Ximin Luo
V: 1124---3	      intrigeri	- Intrigeri
V: 76518324	       ishikawa	Mutsumi Ishikawa
V: ---3--21	         iustin	Iustin Pop
V: 1235--64	          ivodd	Ivo De Decker
V: 2134--56	            iwj	Ian Jackson
V: 12257755	            jak	Julian Klode
V: -----123	        jaldhar	Jaldhar Vyas
V: --42--13	          jandd	Jan Dittberner
V: 45367812	         jaqque	John Robinson
V: ---2--31	         jathan	Jonathan Bustillos
V: 12-----3	         jbicha	Jeremy Bicha
V: -1-----2	            jcc	Jonathan Carter
V: ------12	           jcfp	Jeroen Ploemen
V: 1234--56	       jcristau	Julien Cristau
V: -------1	            jdg	Julian Gilbey
V: 21358746	            jeb	James Bromberger
V: 43216645	         jelmer	Jelmer Vernooij
V: ---1--23	            jjr	Jeffrey Ratcliffe
V: 33333312	      jmaslibre	Josué Abarca
V: 11125534	            jmm	Moritz Muehlenhoff
V: 1234--65	           jmtd	Jonathan Dowland
V: 83218867	            jmw	Jonathan Wiltshire
V: 32216534	          joerg	Joerg Jaspert
V: 11326645	          jordi	Jordi Mallach
V: ------12	          josue	Josué Ortega
V: 21458763	        joussen	Mario Joussen
V: ---2--13	         jpuydt	Julien Puydt
V: ----2314	       jredrejo	José L. Redrejo Rodríguez
V: 12348865	         jrtc27	Jessica Clarke
V: 86437512	             js	Jonas Smedegaard
V: 64317825	      jvalleroy	James Valleroy
V: 1243--56	          kamal	Kamal Mostafa
V: 65437218	         kartik	Kartik Mistry
V: 1233--54	           kees	Kees Cook
V: ---1---2	         kenhys	HAYASHI Kentaro
V: 111----2	           kibi	Cyril Brulebois
V: 87651234	       kilobyte	Adam Borowski
V: 12347865	      kitterman	Scott Kitterman
V: ---1--23	           knok	Takatsugu Nokubi
V: 12345678	          kobla	Ondřej Kobližek
V: 12437865	         kolter	Emmanuel Bouthenot
V: 2143----	          krait	Christopher Knadle
V: ---4312-	          krala	Antonin Kral
V: 3452--16	        kreckel	Richard Kreckel
V: 52348871	     kritzefitz	Sven Bartscher
V: --21---3	           kula	Marcin Kulisz
V: 12347856	          lamby	Chris Lamb
V: -----213	          lange	Thomas Lange
V: 12437756	        larjona	Laura Arjona Reina
V: 1235--64	       lavamind	Jerome Charaoui
V: ------12	       lawrencc	Christopher Lawrence
V: 31254867	     lazyfrosch	Markus Frosch
V: ----321-	        lbrenta	Ludovic Brenta
V: 76543218	        lechner	Felix Lechner
V: ------12	         leepen	Mark Hindley
V: 12----34	        legoktm	Kunal Mehta
V: 88873128	        lenharo	Daniel Souza
V: 54444213	            leo	Carsten Leonhardt
V: 1323--65	       lfaraone	Luke Faraone
V: 22222221	       lfilipoz	Luca Filipozzi
V: ------12	       lightsey	John Lightsey
V: 88878718	         lkajan	Laszlo Kajan
V: 78652134	        lmamane	Lionel Mamane
V: ----4312	        lopippo	Filippo Rusconi
V: 24316755	          lucab	Luca Bruno
V: 12347756	          lucas	Lucas Nussbaum
V: 87634215	          lumin	Mo Zhou
V: ------12	        lyknode	Baptiste Beauplat
V: 43128857	        madduck	Martin Krafft
V: -----213	           mafm	Manuel A. Fernandez Montecelo
V: 21347756	            mak	Matthias Klumpp
V: 64218537	           manu	Emmanuel Kasprzyk
V: 87653214	       marillat	Christian Marillat
V: 31247856	          mattb	Matthew Brown
V: 1243--65	        matthew	Matthew Vernon
V: 84658815	         mattia	Mattia Rizzolo
V: 65837412	           maxx	Martin Wuertele
V: ------12	        mbehrle	Mathias Behrle
V: 14567823	          mbuck	Martin Buck
V: 75317426	             md	Marco d'Itri
V: 12-----3	          mehdi	Mehdi Dogguy
V: 1242---5	           mejo	Jonas Meurer
V: 33333312	         merker	Karsten Merker
V: ------12	         merkys	Andrius Merkys
V: 34215678	          metal	Marcelo Vieira
V: ------12	            mez	Martin Meredith
V: 76543218	            mfv	Matteo Vescovi
V: 1234---5	          micah	Micah Anderson
V: 87318425	          micha	Micha Lenk
V: --21--34	            mih	Michael Hanke
V: 213----4	           mika	Michael Prokop
V: 87326514	          milan	Milan Kupcevic
V: 86118857	       mjeanson	Michael Jeanson
V: 12347765	          mjg59	Matthew Garrett
V: 12357764	        mollydb	Molly de Blanc
V: 123----4	          mones	Ricardo Mones Lastra
V: 54327851	          moray	Moray Allan
V: 76544213	          morph	Sandro Tosi
V: -----312	          mpitt	Martin Pitt
V: ------12	         mstone	Michael Stone
V: 33128867	    mtecknology	Michael Lustfield
V: 123-----	          murat	Murat Demirten
V: 22224413	           mwei	Ming-ting Wei
V: 1234--56	           myon	Christoph Berg
V: ---1432-	   natureshadow	Dominik George
V: 3112--44	         nbreen	Nicholas Breen
V: 12457863	          neilm	Neil McGovern
V: 12-----3	          nicoo	  Nicoo
V: 2134--65	          nijel	Michal Cihar
V: ----2-13	         nirgal	Jean-Michel Vourgère
V: 45716723	          noahm	Noah Meyerhans
V: -----213	           noel	Noèl Köthe
V: 1234--56	        noodles	Jonathan McDowell
V: 12337645	       nthykier	Niels Thykier
V: 42318756	          ntyni	Niko Tyni
V: 32417765	           odyx	Didier Raboud
V: 1234---5	          ohura	Makoto OHURA
V: 12437865	          olasd	Nicolas Dandrimont
V: 12368754	        olebole	Ole Streicher
V: 21437865	           olek	Olek Wojnar
V: 2134--65	         ondrej	Ondrej Sury
V: ----321-	        onlyjob	Dmitry Smirnov
V: 87653214	            orv	Benda Xu
V: 43527816	          osamu	Osamu Aoki
V: 86537214	           otto	Otto Kekäläinen
V: ---1----	   paddatrapper	Kyle Robbertze
V: 12347756	       paravoid	Faidon Liambotis
V: -------1	         paride	Paride Legovini
V: ------12	           paul	Paul Slootman
V: ----2134	        paulliu	Ying-Chun Liu
V: 12346665	        paultag	Paul Tagliamonte
V: 54434312	            pdm	Milan Zamazal
V: -221--35	            peb	Pierre-Elliott Bécue
V: 86547213	           pere	Petter Reinholdtsen
V: 65437812	            pgt	Pierre Gruet
V: 5213--46	          philh	Philip Hands
V: ------1-	           phls	Paulo Santana
V: 11236654	            pik	Paul Cannon
V: 88888712	           pini	Gilles Filippini
V: ----2138	          piotr	Piotr Ożarowski
V: 42137765	            pjb	Phil Brooke
V: 43218867	          pkern	Philipp Kern
V: -------1	         plessy	Charles Plessy
V: 86741235	         pmhahn	Philipp Hahn
V: 1234--65	          pollo	Louis-Philippe Véronneau
V: -----213	         pollux	Pierre Chifflier
V: 71237645	       porridge	Marcin Owsiany
V: 1234----	        praveen	Praveen Arimbrathodiyil
V: --42-213	       preining	Norbert Preining
V: ------12	       pronovic	Kenneth Pronovici
V: 12448853	       pvaneynd	Peter Van Eynde
V: 78652314	            ras	Russell Stuart
V: 88848312	        rbalint	Balint Reczey
V: -------1	         rbasak	Robie Basak
V: 21347765	        reichel	Joachim Reichel
V: 12367845	         rhonda	Rhonda D'Vine
V: 12358764	         richih	Richard Hartmann
V: ----213-	          risko	RISKO Gergely
V: 61238745	        rlaager	Richard Laager
V: ------1-	       rmayorga	Rene Mayorga
V: 3122----	           roam	Peter Pentchev
V: 76825413	         roland	Roland Rosenfeld
V: -----123	           rosh	Roger Shimizu
V: ----3214	       rousseau	Ludovic Rousseau
V: 12335554	          rover	Roberto Lumbreras
V: 42138765	            rra	Russ Allbery
V: 3123--45	    rvandegrift	Ross Vandegrift
V: 4123--65	      samueloph	Samuel Henrique
V: --12--13	       santiago	Santiago Rincón
V: -----213	        sanvila	Santiago Vila
V: -----213	           sasa	Attila Szalay
V: 44424413	        sathieu	Mathieu Parent
V: 21318878	         sbadia	Sebastien Badia
V: 31267845	       schultmc	Michael Schultheiss
V: ---1---2	            seb	Sebastien Delafond
V: 21438765	      sebastien	Sébastien Villemot
V: -----123	        serpent	Tomasz Rybak
V: 12347655	          sesse	Steinar Gunderson
V: 1111--23	            sez	Serafeim Zanikolas
V: 11215543	             sf	Stefan Fritsch
V: 66651234	        sharkey	Eric Sharkey
V: 1223---4	       siretart	Reinhard Tartler
V: 3214--56	         sjoerd	Sjoerd Simons
V: 12348765	            sjr	Simon Richter
V: 21347856	          skitt	Stephen Kitt
V: 1245---3	          slomo	Sebastian Dröge
V: 43217856	           smcv	Simon McVittie
V: 32148756	          smurf	Matthias Urlichs
V: 52317846	      spwhitton	Sean Whitton
V: 11127765	      sramacher	Sebastian Ramacher
V: 21338885	           srud	Sruthi Chandran
V: 12257864	         ssgelm	Stephen Gelman
V: 123----4	     stapelberg	Michael Stapelberg
V: 76458213	       stappers	Geert Stappers
V: --1---2-	         steele	David Steele
V: 12347865	       stefanor	Stefano Rivera
V: 52318746	 stephanlachnit	Stephan Lachnit
V: -----123	          steve	Steve Kostecke
V: 55551324	        stevenc	Steven Chamberlain
V: 65515324	      sthibault	Samuel Thibault
V: 31126654	         stuart	Stuart Prescott
V: ------1-	          sudip	Sudip Mukherjee
V: 14328765	           sune	Sune Vuorela
V: --3--21-	      sunweaver	Mike Gabriel
V: ------1-	          swt2c	Scott Talbert
V: 12347865	      sylvestre	Sylvestre Ledru
V: ------12	           tach	Taku Yasui
V: 1236--54	         taffit	David Prévot
V: 87654312	         takaki	Takaki Taniguchi
V: 1234--84	          taowa	  Taowa
V: 2134---5	         tassia	Tássia Camões Araújo
V: 12347865	            tbm	Martin Michlmayr
V: -----12-	        tehnick	Boris Pek
V: 1234--56	       terceiro	Antonio Terceiro
V: 12238854	         tfheen	Tollef Fog Heen
V: 86735124	             tg	Thorsten Glaser
V: ------12	        thansen	Tobias Hansen
V: 78643215	            thb	Thaddeus Black
V: -----213	        thibaut	Thibaut Paumard
V: 342---1-	          thijs	Thijs Kinkhorst
V: ----1234	            thk	Thomas Koch
V: 2123--54	          tiago	Tiago Bortoletto Vaz
V: 12348875	         tianon	Tianon Gravi
V: ------12	         tijuca	Carsten Schoenert
V: 88888817	          tille	Andreas Tille
V: -------1	           timo	Timo Jyrinki
V: 12357864	           tina	Martina Ferrari
V: 66653214	           tiwe	Timo Weingärtner
V: 44414423	       tjhukkan	Teemu Hukkanen
V: ------12	       tmancill	Tony Mancill
V: 87617214	           tobi	Tobias Frost
V: ----1123	           toni	Toni Mueller
V: ------12	            tpo	Tomas Pospisek
V: 76634125	        treinen	Ralf Treinen
V: 41237865	       tvincent	Thomas Vincent
V: ------12	         tweber	Thomas Weber
V: 12348756	          tytso	Theodore Ts'o
V: 61237854	        tzafrir	Tzafrir Cohen
V: 12347756	           ucko	Aaron Ucko
V: -431--12	         uhoreg	Hubert Chathi
V: ------12	       ukleinek	Uwe Kleine-König
V: 1122--87	         ulrike	Ulrike Uhlig
V: 42317756	      ultrotter	Guido Trotter
V: 4431--2-	       umlaeute	IOhannes zmölnig
V: -----21-	        unit193	Unit 193  
V: 6251--43	        vagrant	Vagrant Cascadian
V: 888-111-	        vasudev	Vasudev Kamath
V: --34--12	          vicho	Javier Merino Cacho
V: ------12	           vivi	Vincent Prat
V: 43127856	        vlegout	Vincent Legout
V: 12437765	         vorlon	Steve Langasek
V: ------1-	         vvidic	Valentin Vidic
V: 2134----	         wagner	Hanno Wagner
V: 87746123	       weinholt	Göran Weinholt
V: 86715324	          wferi	Ferenc Wágner
V: 12348765	         wijnen	Bas Wijnen
V: 88653214	         wookey	- Wookey
V: 22215643	         wouter	Wouter Verhelst
V: 52116534	           wrar	Andrey Rahmatullin
V: 62237514	            xam	Max Vozeler
V: 2134----	         xluthi	Xavier Lüthi
V: ------12	           yadd	Xavier Guimard
V: ---2-13-	            yoh	Yaroslav Halchenko
V: 12347765	           zack	Stefano Zacchiroli
V: 213----4	           zeha	Christian Hofstaedtler
V: ------1-	           zhsj	Shengjing Zhu
V: 87465312	           zigo	Thomas Goirand
V: --1-----	         zlatan	Zlatan Todoric
V: 54326817	      zugschlus	Marc Haber
