<define-tag pagetitle>DLA-2753-2 qemu</define-tag>
<define-tag report_date>2021-9-12</define-tag>
<define-tag secrefs>CVE-2021-3592 Bug#994080</define-tag>
<define-tag packages>qemu</define-tag>
<define-tag isvulnerable>yes</define-tag>
<define-tag fixed>yes</define-tag>
<define-tag fixed-section>no</define-tag>

#use wml::debian::security

