<define-tag pagetitle>DLA-2640-1 gst-plugins-good1.0</define-tag>
<define-tag report_date>2021-04-26</define-tag>
<define-tag secrefs>CVE-2021-3497 Bug#986910</define-tag>
<define-tag packages>gst-plugins-good1.0</define-tag>
<define-tag isvulnerable>yes</define-tag>
<define-tag fixed>yes</define-tag>
<define-tag fixed-section>no</define-tag>

#use wml::debian::security

