<define-tag pagetitle>DLA-1009-1 apache2</define-tag>
<define-tag report_date>2017-7-2</define-tag>
<define-tag secrefs>CVE-2017-3167 CVE-2017-3169 CVE-2017-7668 CVE-2017-7679</define-tag>
<define-tag packages>apache2</define-tag>
<define-tag isvulnerable>yes</define-tag>
<define-tag fixed>yes</define-tag>
<define-tag fixed-section>no</define-tag>

#use wml::debian::security

