<define-tag pagetitle>DLA-1098-1 freexl</define-tag>
<define-tag report_date>2017-9-17</define-tag>
<define-tag secrefs>CVE-2017-2923 CVE-2017-2924 Bug##875690 Bug##875691</define-tag>
<define-tag packages>freexl</define-tag>
<define-tag isvulnerable>yes</define-tag>
<define-tag fixed>yes</define-tag>
<define-tag fixed-section>no</define-tag>

#use wml::debian::security

