<define-tag pagetitle>DLA-856-1 tzdata</define-tag>
<define-tag report_date>2017-3-16</define-tag>
<define-tag packages>tzdata</define-tag>
<define-tag isvulnerable>yes</define-tag>
<define-tag fixed>yes</define-tag>
<define-tag fixed-section>no</define-tag>

#use wml::debian::security

