<define-tag pagetitle>DLA-1798-1 jackson-databind</define-tag>
<define-tag report_date>2019-5-21</define-tag>
<define-tag secrefs>CVE-2019-12086 Bug#929177</define-tag>
<define-tag packages>jackson-databind</define-tag>
<define-tag isvulnerable>yes</define-tag>
<define-tag fixed>yes</define-tag>
<define-tag fixed-section>no</define-tag>

#use wml::debian::security

